[gd_scene load_steps=6 format=2]

[ext_resource path="res://Scenes/Player.tscn" type="PackedScene" id=1]
[ext_resource path="res://Assets/Tileset/StoneWorld.tres" type="TileSet" id=2]
[ext_resource path="res://Assets/Familiar Looking Rocket.png" type="Texture" id=3]
[ext_resource path="res://Scenes/Area Trigger.tscn" type="PackedScene" id=4]
[ext_resource path="res://Scenes/Life Counter.tscn" type="PackedScene" id=5]

[node name="Level 1" type="Node2D"]
__meta__ = {
"_editor_description_": ""
}

[node name="Player" parent="." instance=ExtResource( 1 )]
position = Vector2( 221.853, 88.5828 )
speed = 300

[node name="TileMap" type="TileMap" parent="."]
scale = Vector2( 0.5, 0.5 )
tile_set = ExtResource( 2 )
cell_size = Vector2( 128, 128 )
format = 1
tile_data = PoolIntArray( 327681, 0, 3, 327682, 0, 0, 327683, 0, 0, 327684, 0, 0, 327685, 0, 0, 327688, 0, 0, 327689, 0, 0, 327690, 0, 0, 327691, 0, 0, 327692, 0, 0, 327693, 0, 65540, 393218, 0, 1, 393219, 0, 1, 393220, 0, 1, 393221, 0, 1, 393224, 0, 1, 393225, 0, 1, 393226, 0, 1, 393227, 0, 1, 393228, 0, 1, 393229, 0, 7, 393230, 0, 65540, 458754, 0, 1, 458755, 0, 1, 458756, 0, 1, 458757, 0, 1, 458760, 0, 1, 458761, 0, 1, 458762, 0, 1, 458763, 0, 1, 458764, 0, 1, 458765, 0, 1, 458766, 0, 7, 458767, 0, 65540, 524290, 0, 1, 524291, 0, 1, 524292, 0, 1, 524293, 0, 1, 524296, 0, 1, 524297, 0, 1, 524298, 0, 1, 524299, 0, 1, 524300, 0, 1, 524301, 0, 1, 524302, 0, 1, 524303, 0, 7, 524304, 0, 65540, 524308, 0, 0, 589826, 0, 1, 589827, 0, 1, 589828, 0, 1, 589829, 0, 1, 589832, 0, 1, 589833, 0, 1, 589834, 0, 1, 589835, 0, 1, 589836, 0, 1, 589837, 0, 1, 589838, 0, 1, 589839, 0, 1, 589840, 0, 7, 589841, 0, 65540, 589843, 0, 65542, 589844, 0, 1, 655362, 0, 1, 655363, 0, 1, 655364, 0, 1, 655365, 0, 1, 655368, 0, 1, 655369, 0, 1, 655370, 0, 1, 655371, 0, 1, 655372, 0, 1, 655373, 0, 1, 655374, 0, 1, 655375, 0, 1, 655376, 0, 1, 655377, 0, 7, 655378, 0, 65543, 655379, 0, 1, 655380, 0, 1, 655381, 0, 65543, 655382, 0, 65543, 655383, 0, 65543, 655384, 0, 65543, 655385, 0, 65543, 655386, 0, 65543, 655387, 0, 6 )

[node name="Sprite" type="Sprite" parent="."]
position = Vector2( 1662.2, 394.623 )
texture = ExtResource( 3 )

[node name="Area Trigger" parent="Sprite" instance=ExtResource( 4 )]
scale = Vector2( 0.6, 0.9 )
sceneName = "Level 2"

[node name="Area Trigger" parent="." instance=ExtResource( 4 )]
position = Vector2( 892.925, 781.593 )
scale = Vector2( 7.65, 0.1 )

[node name="CanvasLayer" type="CanvasLayer" parent="."]

[node name="GUI" parent="CanvasLayer" instance=ExtResource( 5 )]
